(['/home/sozin/bin/GitMaster/src/main/python/main.py'],
 ['/home/sozin/bin/GitMaster/src/main/python',
  '/home/sozin/bin/GitMaster/target/PyInstaller'],
 ['codecs'],
 ['/home/sozin/bin/GitMaster/venv/lib/python3.8/site-packages/fbs/freeze/hooks'],
 [],
 ['/home/sozin/bin/GitMaster/target/PyInstaller/fbs_pyinstaller_hook.py'],
 False,
 False,
 '3.8.5 (default, Jan 27 2021, 15:41:15) \n[GCC 9.3.0]',
 [('fbs_pyinstaller_hook',
   '/home/sozin/bin/GitMaster/target/PyInstaller/fbs_pyinstaller_hook.py',
   'PYSOURCE'),
  ('pyi_rth_multiprocessing',
   '/home/sozin/bin/GitMaster/venv/lib/python3.8/site-packages/PyInstaller/loader/rthooks/pyi_rth_multiprocessing.py',
   'PYSOURCE'),
  ('pyi_rth_qt5',
   '/home/sozin/bin/GitMaster/venv/lib/python3.8/site-packages/PyInstaller/loader/rthooks/pyi_rth_qt5.py',
   'PYSOURCE'),
  ('main', '/home/sozin/bin/GitMaster/src/main/python/main.py', 'PYSOURCE')],
 [('posixpath', '/usr/lib/python3.8/posixpath.py', 'PYMODULE'),
  ('_strptime', '/usr/lib/python3.8/_strptime.py', 'PYMODULE'),
  ('datetime', '/usr/lib/python3.8/datetime.py', 'PYMODULE'),
  ('zipimport', '/usr/lib/python3.8/zipimport.py', 'PYMODULE'),
  ('xml.etree.ElementInclude',
   '/usr/lib/python3.8/xml/etree/ElementInclude.py',
   'PYMODULE'),
  ('xml.etree.cElementTree',
   '/usr/lib/python3.8/xml/etree/cElementTree.py',
   'PYMODULE'),
  ('stringprep', '/usr/lib/python3.8/stringprep.py', 'PYMODULE'),
  ('_py_abc', '/usr/lib/python3.8/_py_abc.py', 'PYMODULE'),
  ('os', '/usr/lib/python3.8/os.py', 'PYMODULE'),
  ('token', '/usr/lib/python3.8/token.py', 'PYMODULE'),
  ('gettext', '/usr/lib/python3.8/gettext.py', 'PYMODULE'),
  ('copy', '/usr/lib/python3.8/copy.py', 'PYMODULE'),
  ('stat', '/usr/lib/python3.8/stat.py', 'PYMODULE'),
  ('fnmatch', '/usr/lib/python3.8/fnmatch.py', 'PYMODULE'),
  ('bz2', '/usr/lib/python3.8/bz2.py', 'PYMODULE'),
  ('lzma', '/usr/lib/python3.8/lzma.py', 'PYMODULE'),
  ('tarfile', '/usr/lib/python3.8/tarfile.py', 'PYMODULE'),
  ('importlib.util', '/usr/lib/python3.8/importlib/util.py', 'PYMODULE'),
  ('struct', '/usr/lib/python3.8/struct.py', 'PYMODULE'),
  ('_threading_local', '/usr/lib/python3.8/_threading_local.py', 'PYMODULE'),
  ('threading', '/usr/lib/python3.8/threading.py', 'PYMODULE'),
  ('contextlib', '/usr/lib/python3.8/contextlib.py', 'PYMODULE'),
  ('csv', '/usr/lib/python3.8/csv.py', 'PYMODULE'),
  ('email.errors', '/usr/lib/python3.8/email/errors.py', 'PYMODULE'),
  ('email.encoders', '/usr/lib/python3.8/email/encoders.py', 'PYMODULE'),
  ('email.charset', '/usr/lib/python3.8/email/charset.py', 'PYMODULE'),
  ('email.header', '/usr/lib/python3.8/email/header.py', 'PYMODULE'),
  ('email._header_value_parser',
   '/usr/lib/python3.8/email/_header_value_parser.py',
   'PYMODULE'),
  ('email.feedparser', '/usr/lib/python3.8/email/feedparser.py', 'PYMODULE'),
  ('bisect', '/usr/lib/python3.8/bisect.py', 'PYMODULE'),
  ('_compat_pickle', '/usr/lib/python3.8/_compat_pickle.py', 'PYMODULE'),
  ('__future__', '/usr/lib/python3.8/__future__.py', 'PYMODULE'),
  ('difflib', '/usr/lib/python3.8/difflib.py', 'PYMODULE'),
  ('ast', '/usr/lib/python3.8/ast.py', 'PYMODULE'),
  ('inspect', '/usr/lib/python3.8/inspect.py', 'PYMODULE'),
  ('cmd', '/usr/lib/python3.8/cmd.py', 'PYMODULE'),
  ('bdb', '/usr/lib/python3.8/bdb.py', 'PYMODULE'),
  ('opcode', '/usr/lib/python3.8/opcode.py', 'PYMODULE'),
  ('dis', '/usr/lib/python3.8/dis.py', 'PYMODULE'),
  ('codeop', '/usr/lib/python3.8/codeop.py', 'PYMODULE'),
  ('code', '/usr/lib/python3.8/code.py', 'PYMODULE'),
  ('tty', '/usr/lib/python3.8/tty.py', 'PYMODULE'),
  ('pydoc_data', '/usr/lib/python3.8/pydoc_data/__init__.py', 'PYMODULE'),
  ('pydoc_data.topics', '/usr/lib/python3.8/pydoc_data/topics.py', 'PYMODULE'),
  ('html.entities', '/usr/lib/python3.8/html/entities.py', 'PYMODULE'),
  ('html', '/usr/lib/python3.8/html/__init__.py', 'PYMODULE'),
  ('socketserver', '/usr/lib/python3.8/socketserver.py', 'PYMODULE'),
  ('http.server', '/usr/lib/python3.8/http/server.py', 'PYMODULE'),
  ('webbrowser', '/usr/lib/python3.8/webbrowser.py', 'PYMODULE'),
  ('pydoc', '/usr/lib/python3.8/pydoc.py', 'PYMODULE'),
  ('pdb', '/usr/lib/python3.8/pdb.py', 'PYMODULE'),
  ('unittest.util', '/usr/lib/python3.8/unittest/util.py', 'PYMODULE'),
  ('unittest.result', '/usr/lib/python3.8/unittest/result.py', 'PYMODULE'),
  ('asyncio.constants', '/usr/lib/python3.8/asyncio/constants.py', 'PYMODULE'),
  ('asyncio.format_helpers',
   '/usr/lib/python3.8/asyncio/format_helpers.py',
   'PYMODULE'),
  ('asyncio.exceptions',
   '/usr/lib/python3.8/asyncio/exceptions.py',
   'PYMODULE'),
  ('asyncio.base_futures',
   '/usr/lib/python3.8/asyncio/base_futures.py',
   'PYMODULE'),
  ('asyncio.coroutines',
   '/usr/lib/python3.8/asyncio/coroutines.py',
   'PYMODULE'),
  ('asyncio.futures', '/usr/lib/python3.8/asyncio/futures.py', 'PYMODULE'),
  ('asyncio.protocols', '/usr/lib/python3.8/asyncio/protocols.py', 'PYMODULE'),
  ('asyncio.base_events',
   '/usr/lib/python3.8/asyncio/base_events.py',
   'PYMODULE'),
  ('asyncio.transports',
   '/usr/lib/python3.8/asyncio/transports.py',
   'PYMODULE'),
  ('asyncio.sslproto', '/usr/lib/python3.8/asyncio/sslproto.py', 'PYMODULE'),
  ('asyncio.locks', '/usr/lib/python3.8/asyncio/locks.py', 'PYMODULE'),
  ('asyncio.base_tasks',
   '/usr/lib/python3.8/asyncio/base_tasks.py',
   'PYMODULE'),
  ('concurrent', '/usr/lib/python3.8/concurrent/__init__.py', 'PYMODULE'),
  ('concurrent.futures._base',
   '/usr/lib/python3.8/concurrent/futures/_base.py',
   'PYMODULE'),
  ('multiprocessing',
   '/usr/lib/python3.8/multiprocessing/__init__.py',
   'PYMODULE'),
  ('xmlrpc', '/usr/lib/python3.8/xmlrpc/__init__.py', 'PYMODULE'),
  ('xmlrpc.client', '/usr/lib/python3.8/xmlrpc/client.py', 'PYMODULE'),
  ('multiprocessing.connection',
   '/usr/lib/python3.8/multiprocessing/connection.py',
   'PYMODULE'),
  ('multiprocessing.resource_sharer',
   '/usr/lib/python3.8/multiprocessing/resource_sharer.py',
   'PYMODULE'),
  ('multiprocessing.reduction',
   '/usr/lib/python3.8/multiprocessing/reduction.py',
   'PYMODULE'),
  ('secrets', '/usr/lib/python3.8/secrets.py', 'PYMODULE'),
  ('multiprocessing.shared_memory',
   '/usr/lib/python3.8/multiprocessing/shared_memory.py',
   'PYMODULE'),
  ('multiprocessing.managers',
   '/usr/lib/python3.8/multiprocessing/managers.py',
   'PYMODULE'),
  ('multiprocessing.dummy.connection',
   '/usr/lib/python3.8/multiprocessing/dummy/connection.py',
   'PYMODULE'),
  ('multiprocessing.dummy',
   '/usr/lib/python3.8/multiprocessing/dummy/__init__.py',
   'PYMODULE'),
  ('multiprocessing.pool',
   '/usr/lib/python3.8/multiprocessing/pool.py',
   'PYMODULE'),
  ('multiprocessing.sharedctypes',
   '/usr/lib/python3.8/multiprocessing/sharedctypes.py',
   'PYMODULE'),
  ('multiprocessing.popen_fork',
   '/usr/lib/python3.8/multiprocessing/popen_fork.py',
   'PYMODULE'),
  ('multiprocessing.popen_spawn_posix',
   '/usr/lib/python3.8/multiprocessing/popen_spawn_posix.py',
   'PYMODULE'),
  ('multiprocessing.popen_forkserver',
   '/usr/lib/python3.8/multiprocessing/popen_forkserver.py',
   'PYMODULE'),
  ('multiprocessing.popen_spawn_win32',
   '/usr/lib/python3.8/multiprocessing/popen_spawn_win32.py',
   'PYMODULE'),
  ('multiprocessing.context',
   '/usr/lib/python3.8/multiprocessing/context.py',
   'PYMODULE'),
  ('test', '/usr/lib/python3.8/test/__init__.py', 'PYMODULE'),
  ('glob', '/usr/lib/python3.8/glob.py', 'PYMODULE'),
  ('hmac', '/usr/lib/python3.8/hmac.py', 'PYMODULE'),
  ('email.base64mime', '/usr/lib/python3.8/email/base64mime.py', 'PYMODULE'),
  ('smtplib', '/usr/lib/python3.8/smtplib.py', 'PYMODULE'),
  ('logging.handlers', '/usr/lib/python3.8/logging/handlers.py', 'PYMODULE'),
  ('nntplib', '/usr/lib/python3.8/nntplib.py', 'PYMODULE'),
  ('plistlib', '/usr/lib/python3.8/plistlib.py', 'PYMODULE'),
  ('platform', '/usr/lib/python3.8/platform.py', 'PYMODULE'),
  ('sysconfig', '/usr/lib/python3.8/sysconfig.py', 'PYMODULE'),
  ('_sysconfigdata__x86_64-linux-gnu',
   '/usr/lib/python3.8/_sysconfigdata__x86_64-linux-gnu.py',
   'PYMODULE'),
  ('urllib.error', '/usr/lib/python3.8/urllib/error.py', 'PYMODULE'),
  ('xml.etree', '/usr/lib/python3.8/xml/etree/__init__.py', 'PYMODULE'),
  ('xml.etree.ElementPath',
   '/usr/lib/python3.8/xml/etree/ElementPath.py',
   'PYMODULE'),
  ('xml', '/usr/lib/python3.8/xml/__init__.py', 'PYMODULE'),
  ('xml.sax.expatreader',
   '/usr/lib/python3.8/xml/sax/expatreader.py',
   'PYMODULE'),
  ('xml.sax.saxutils', '/usr/lib/python3.8/xml/sax/saxutils.py', 'PYMODULE'),
  ('xml.sax', '/usr/lib/python3.8/xml/sax/__init__.py', 'PYMODULE'),
  ('xml.sax.handler', '/usr/lib/python3.8/xml/sax/handler.py', 'PYMODULE'),
  ('xml.sax._exceptions',
   '/usr/lib/python3.8/xml/sax/_exceptions.py',
   'PYMODULE'),
  ('xml.sax.xmlreader', '/usr/lib/python3.8/xml/sax/xmlreader.py', 'PYMODULE'),
  ('xml.parsers', '/usr/lib/python3.8/xml/parsers/__init__.py', 'PYMODULE'),
  ('xml.parsers.expat', '/usr/lib/python3.8/xml/parsers/expat.py', 'PYMODULE'),
  ('xml.etree.ElementTree',
   '/usr/lib/python3.8/xml/etree/ElementTree.py',
   'PYMODULE'),
  ('test.support.testresult',
   '/usr/lib/python3.8/test/support/testresult.py',
   'PYMODULE'),
  ('_compression', '/usr/lib/python3.8/_compression.py', 'PYMODULE'),
  ('gzip', '/usr/lib/python3.8/gzip.py', 'PYMODULE'),
  ('ctypes._endian', '/usr/lib/python3.8/ctypes/_endian.py', 'PYMODULE'),
  ('ctypes', '/usr/lib/python3.8/ctypes/__init__.py', 'PYMODULE'),
  ('ctypes.wintypes', '/usr/lib/python3.8/ctypes/wintypes.py', 'PYMODULE'),
  ('ctypes._aix', '/usr/lib/python3.8/ctypes/_aix.py', 'PYMODULE'),
  ('ctypes.util', '/usr/lib/python3.8/ctypes/util.py', 'PYMODULE'),
  ('optparse', '/usr/lib/python3.8/optparse.py', 'PYMODULE'),
  ('uu', '/usr/lib/python3.8/uu.py', 'PYMODULE'),
  ('quopri', '/usr/lib/python3.8/quopri.py', 'PYMODULE'),
  ('email._encoded_words',
   '/usr/lib/python3.8/email/_encoded_words.py',
   'PYMODULE'),
  ('email.generator', '/usr/lib/python3.8/email/generator.py', 'PYMODULE'),
  ('email.iterators', '/usr/lib/python3.8/email/iterators.py', 'PYMODULE'),
  ('email.headerregistry',
   '/usr/lib/python3.8/email/headerregistry.py',
   'PYMODULE'),
  ('email.quoprimime', '/usr/lib/python3.8/email/quoprimime.py', 'PYMODULE'),
  ('email.contentmanager',
   '/usr/lib/python3.8/email/contentmanager.py',
   'PYMODULE'),
  ('email.policy', '/usr/lib/python3.8/email/policy.py', 'PYMODULE'),
  ('email.message', '/usr/lib/python3.8/email/message.py', 'PYMODULE'),
  ('http.client', '/usr/lib/python3.8/http/client.py', 'PYMODULE'),
  ('urllib.response', '/usr/lib/python3.8/urllib/response.py', 'PYMODULE'),
  ('http', '/usr/lib/python3.8/http/__init__.py', 'PYMODULE'),
  ('http.cookiejar', '/usr/lib/python3.8/http/cookiejar.py', 'PYMODULE'),
  ('mimetypes', '/usr/lib/python3.8/mimetypes.py', 'PYMODULE'),
  ('shlex', '/usr/lib/python3.8/shlex.py', 'PYMODULE'),
  ('netrc', '/usr/lib/python3.8/netrc.py', 'PYMODULE'),
  ('ftplib', '/usr/lib/python3.8/ftplib.py', 'PYMODULE'),
  ('nturl2path', '/usr/lib/python3.8/nturl2path.py', 'PYMODULE'),
  ('getpass', '/usr/lib/python3.8/getpass.py', 'PYMODULE'),
  ('urllib.request', '/usr/lib/python3.8/urllib/request.py', 'PYMODULE'),
  ('tracemalloc', '/usr/lib/python3.8/tracemalloc.py', 'PYMODULE'),
  ('distutils', '/usr/lib/python3.8/distutils/__init__.py', 'PYMODULE'),
  ('distutils.fancy_getopt',
   '/usr/lib/python3.8/distutils/fancy_getopt.py',
   'PYMODULE'),
  ('distutils.ccompiler',
   '/usr/lib/python3.8/distutils/ccompiler.py',
   'PYMODULE'),
  ('distutils.dep_util',
   '/usr/lib/python3.8/distutils/dep_util.py',
   'PYMODULE'),
  ('lib2to3.pgen2', '/usr/lib/python3.8/lib2to3/pgen2/__init__.py', 'PYMODULE'),
  ('lib2to3.pgen2.pgen',
   '/usr/lib/python3.8/lib2to3/pgen2/pgen.py',
   'PYMODULE'),
  ('lib2to3.pgen2.driver',
   '/usr/lib/python3.8/lib2to3/pgen2/driver.py',
   'PYMODULE'),
  ('lib2to3.pgen2.tokenize',
   '/usr/lib/python3.8/lib2to3/pgen2/tokenize.py',
   'PYMODULE'),
  ('lib2to3.pgen2.token',
   '/usr/lib/python3.8/lib2to3/pgen2/token.py',
   'PYMODULE'),
  ('lib2to3.fixer_util',
   '/usr/lib/python3.8/lib2to3/fixer_util.py',
   'PYMODULE'),
  ('lib2to3.pgen2.literals',
   '/usr/lib/python3.8/lib2to3/pgen2/literals.py',
   'PYMODULE'),
  ('lib2to3.pgen2.parse',
   '/usr/lib/python3.8/lib2to3/pgen2/parse.py',
   'PYMODULE'),
  ('lib2to3.patcomp', '/usr/lib/python3.8/lib2to3/patcomp.py', 'PYMODULE'),
  ('lib2to3', '/usr/lib/python3.8/lib2to3/__init__.py', 'PYMODULE'),
  ('lib2to3.pytree', '/usr/lib/python3.8/lib2to3/pytree.py', 'PYMODULE'),
  ('lib2to3.pygram', '/usr/lib/python3.8/lib2to3/pygram.py', 'PYMODULE'),
  ('lib2to3.pgen2.grammar',
   '/usr/lib/python3.8/lib2to3/pgen2/grammar.py',
   'PYMODULE'),
  ('lib2to3.btm_utils', '/usr/lib/python3.8/lib2to3/btm_utils.py', 'PYMODULE'),
  ('lib2to3.btm_matcher',
   '/usr/lib/python3.8/lib2to3/btm_matcher.py',
   'PYMODULE'),
  ('lib2to3.refactor', '/usr/lib/python3.8/lib2to3/refactor.py', 'PYMODULE'),
  ('distutils.dir_util',
   '/usr/lib/python3.8/distutils/dir_util.py',
   'PYMODULE'),
  ('distutils.file_util',
   '/usr/lib/python3.8/distutils/file_util.py',
   'PYMODULE'),
  ('distutils.filelist',
   '/usr/lib/python3.8/distutils/filelist.py',
   'PYMODULE'),
  ('distutils.util', '/usr/lib/python3.8/distutils/util.py', 'PYMODULE'),
  ('_osx_support', '/usr/lib/python3.8/_osx_support.py', 'PYMODULE'),
  ('distutils.text_file',
   '/usr/lib/python3.8/distutils/text_file.py',
   'PYMODULE'),
  ('distutils.sysconfig',
   '/usr/lib/python3.8/distutils/sysconfig.py',
   'PYMODULE'),
  ('distutils.errors', '/usr/lib/python3.8/distutils/errors.py', 'PYMODULE'),
  ('distutils.debug', '/usr/lib/python3.8/distutils/debug.py', 'PYMODULE'),
  ('distutils.log', '/usr/lib/python3.8/distutils/log.py', 'PYMODULE'),
  ('distutils.spawn', '/usr/lib/python3.8/distutils/spawn.py', 'PYMODULE'),
  ('numbers', '/usr/lib/python3.8/numbers.py', 'PYMODULE'),
  ('_pydecimal', '/usr/lib/python3.8/_pydecimal.py', 'PYMODULE'),
  ('decimal', '/usr/lib/python3.8/decimal.py', 'PYMODULE'),
  ('test.support', '/usr/lib/python3.8/test/support/__init__.py', 'PYMODULE'),
  ('multiprocessing.forkserver',
   '/usr/lib/python3.8/multiprocessing/forkserver.py',
   'PYMODULE'),
  ('multiprocessing.util',
   '/usr/lib/python3.8/multiprocessing/util.py',
   'PYMODULE'),
  ('multiprocessing.process',
   '/usr/lib/python3.8/multiprocessing/process.py',
   'PYMODULE'),
  ('pkgutil', '/usr/lib/python3.8/pkgutil.py', 'PYMODULE'),
  ('runpy', '/usr/lib/python3.8/runpy.py', 'PYMODULE'),
  ('multiprocessing.spawn',
   '/usr/lib/python3.8/multiprocessing/spawn.py',
   'PYMODULE'),
  ('multiprocessing.resource_tracker',
   '/usr/lib/python3.8/multiprocessing/resource_tracker.py',
   'PYMODULE'),
  ('multiprocessing.heap',
   '/usr/lib/python3.8/multiprocessing/heap.py',
   'PYMODULE'),
  ('multiprocessing.synchronize',
   '/usr/lib/python3.8/multiprocessing/synchronize.py',
   'PYMODULE'),
  ('multiprocessing.queues',
   '/usr/lib/python3.8/multiprocessing/queues.py',
   'PYMODULE'),
  ('concurrent.futures.process',
   '/usr/lib/python3.8/concurrent/futures/process.py',
   'PYMODULE'),
  ('queue', '/usr/lib/python3.8/queue.py', 'PYMODULE'),
  ('concurrent.futures.thread',
   '/usr/lib/python3.8/concurrent/futures/thread.py',
   'PYMODULE'),
  ('concurrent.futures',
   '/usr/lib/python3.8/concurrent/futures/__init__.py',
   'PYMODULE'),
  ('asyncio.tasks', '/usr/lib/python3.8/asyncio/tasks.py', 'PYMODULE'),
  ('typing', '/usr/lib/python3.8/typing.py', 'PYMODULE'),
  ('asyncio.staggered', '/usr/lib/python3.8/asyncio/staggered.py', 'PYMODULE'),
  ('asyncio.trsock', '/usr/lib/python3.8/asyncio/trsock.py', 'PYMODULE'),
  ('contextvars', '/usr/lib/python3.8/contextvars.py', 'PYMODULE'),
  ('asyncio.events', '/usr/lib/python3.8/asyncio/events.py', 'PYMODULE'),
  ('asyncio.runners', '/usr/lib/python3.8/asyncio/runners.py', 'PYMODULE'),
  ('asyncio.queues', '/usr/lib/python3.8/asyncio/queues.py', 'PYMODULE'),
  ('asyncio.streams', '/usr/lib/python3.8/asyncio/streams.py', 'PYMODULE'),
  ('asyncio.subprocess',
   '/usr/lib/python3.8/asyncio/subprocess.py',
   'PYMODULE'),
  ('asyncio.base_subprocess',
   '/usr/lib/python3.8/asyncio/base_subprocess.py',
   'PYMODULE'),
  ('asyncio.proactor_events',
   '/usr/lib/python3.8/asyncio/proactor_events.py',
   'PYMODULE'),
  ('getopt', '/usr/lib/python3.8/getopt.py', 'PYMODULE'),
  ('base64', '/usr/lib/python3.8/base64.py', 'PYMODULE'),
  ('ssl', '/usr/lib/python3.8/ssl.py', 'PYMODULE'),
  ('asyncio.selector_events',
   '/usr/lib/python3.8/asyncio/selector_events.py',
   'PYMODULE'),
  ('tempfile', '/usr/lib/python3.8/tempfile.py', 'PYMODULE'),
  ('asyncio.windows_utils',
   '/usr/lib/python3.8/asyncio/windows_utils.py',
   'PYMODULE'),
  ('asyncio.windows_events',
   '/usr/lib/python3.8/asyncio/windows_events.py',
   'PYMODULE'),
  ('subprocess', '/usr/lib/python3.8/subprocess.py', 'PYMODULE'),
  ('asyncio.log', '/usr/lib/python3.8/asyncio/log.py', 'PYMODULE'),
  ('asyncio.unix_events',
   '/usr/lib/python3.8/asyncio/unix_events.py',
   'PYMODULE'),
  ('asyncio', '/usr/lib/python3.8/asyncio/__init__.py', 'PYMODULE'),
  ('unittest.async_case',
   '/usr/lib/python3.8/unittest/async_case.py',
   'PYMODULE'),
  ('unittest.case', '/usr/lib/python3.8/unittest/case.py', 'PYMODULE'),
  ('unittest.suite', '/usr/lib/python3.8/unittest/suite.py', 'PYMODULE'),
  ('unittest.loader', '/usr/lib/python3.8/unittest/loader.py', 'PYMODULE'),
  ('unittest.runner', '/usr/lib/python3.8/unittest/runner.py', 'PYMODULE'),
  ('unittest.main', '/usr/lib/python3.8/unittest/main.py', 'PYMODULE'),
  ('signal', '/usr/lib/python3.8/signal.py', 'PYMODULE'),
  ('unittest.signals', '/usr/lib/python3.8/unittest/signals.py', 'PYMODULE'),
  ('unittest', '/usr/lib/python3.8/unittest/__init__.py', 'PYMODULE'),
  ('doctest', '/usr/lib/python3.8/doctest.py', 'PYMODULE'),
  ('pprint', '/usr/lib/python3.8/pprint.py', 'PYMODULE'),
  ('pickle', '/usr/lib/python3.8/pickle.py', 'PYMODULE'),
  ('logging', '/usr/lib/python3.8/logging/__init__.py', 'PYMODULE'),
  ('hashlib', '/usr/lib/python3.8/hashlib.py', 'PYMODULE'),
  ('random', '/usr/lib/python3.8/random.py', 'PYMODULE'),
  ('selectors', '/usr/lib/python3.8/selectors.py', 'PYMODULE'),
  ('socket', '/usr/lib/python3.8/socket.py', 'PYMODULE'),
  ('calendar', '/usr/lib/python3.8/calendar.py', 'PYMODULE'),
  ('email._parseaddr', '/usr/lib/python3.8/email/_parseaddr.py', 'PYMODULE'),
  ('email.utils', '/usr/lib/python3.8/email/utils.py', 'PYMODULE'),
  ('email._policybase', '/usr/lib/python3.8/email/_policybase.py', 'PYMODULE'),
  ('email.parser', '/usr/lib/python3.8/email/parser.py', 'PYMODULE'),
  ('email', '/usr/lib/python3.8/email/__init__.py', 'PYMODULE'),
  ('genericpath', '/usr/lib/python3.8/genericpath.py', 'PYMODULE'),
  ('string', '/usr/lib/python3.8/string.py', 'PYMODULE'),
  ('ntpath', '/usr/lib/python3.8/ntpath.py', 'PYMODULE'),
  ('urllib', '/usr/lib/python3.8/urllib/__init__.py', 'PYMODULE'),
  ('urllib.parse', '/usr/lib/python3.8/urllib/parse.py', 'PYMODULE'),
  ('configparser', '/usr/lib/python3.8/configparser.py', 'PYMODULE'),
  ('importlib.abc', '/usr/lib/python3.8/importlib/abc.py', 'PYMODULE'),
  ('importlib.metadata',
   '/usr/lib/python3.8/importlib/metadata.py',
   'PYMODULE'),
  ('importlib._bootstrap_external',
   '/usr/lib/python3.8/importlib/_bootstrap_external.py',
   'PYMODULE'),
  ('importlib._bootstrap',
   '/usr/lib/python3.8/importlib/_bootstrap.py',
   'PYMODULE'),
  ('importlib', '/usr/lib/python3.8/importlib/__init__.py', 'PYMODULE'),
  ('importlib.machinery',
   '/usr/lib/python3.8/importlib/machinery.py',
   'PYMODULE'),
  ('py_compile', '/usr/lib/python3.8/py_compile.py', 'PYMODULE'),
  ('zipfile', '/usr/lib/python3.8/zipfile.py', 'PYMODULE'),
  ('shutil', '/usr/lib/python3.8/shutil.py', 'PYMODULE'),
  ('textwrap', '/usr/lib/python3.8/textwrap.py', 'PYMODULE'),
  ('argparse', '/usr/lib/python3.8/argparse.py', 'PYMODULE'),
  ('tokenize', '/usr/lib/python3.8/tokenize.py', 'PYMODULE'),
  ('pathlib', '/usr/lib/python3.8/pathlib.py', 'PYMODULE'),
  ('PyQt5.uic',
   '/home/sozin/bin/GitMaster/venv/lib/python3.8/site-packages/PyQt5/uic/__init__.py',
   'PYMODULE'),
  ('PyQt5.uic.objcreator',
   '/home/sozin/bin/GitMaster/venv/lib/python3.8/site-packages/PyQt5/uic/objcreator.py',
   'PYMODULE'),
  ('PyQt5.uic.exceptions',
   '/home/sozin/bin/GitMaster/venv/lib/python3.8/site-packages/PyQt5/uic/exceptions.py',
   'PYMODULE'),
  ('PyQt5.uic.Loader.loader',
   '/home/sozin/bin/GitMaster/venv/lib/python3.8/site-packages/PyQt5/uic/Loader/loader.py',
   'PYMODULE'),
  ('PyQt5.uic.Loader',
   '/home/sozin/bin/GitMaster/venv/lib/python3.8/site-packages/PyQt5/uic/Loader/__init__.py',
   'PYMODULE'),
  ('PyQt5.uic.Loader.qobjectcreator',
   '/home/sozin/bin/GitMaster/venv/lib/python3.8/site-packages/PyQt5/uic/Loader/qobjectcreator.py',
   'PYMODULE'),
  ('PyQt5.uic.uiparser',
   '/home/sozin/bin/GitMaster/venv/lib/python3.8/site-packages/PyQt5/uic/uiparser.py',
   'PYMODULE'),
  ('PyQt5.uic.properties',
   '/home/sozin/bin/GitMaster/venv/lib/python3.8/site-packages/PyQt5/uic/properties.py',
   'PYMODULE'),
  ('PyQt5.uic.port_v3.ascii_upper',
   '/home/sozin/bin/GitMaster/venv/lib/python3.8/site-packages/PyQt5/uic/port_v3/ascii_upper.py',
   'PYMODULE'),
  ('PyQt5.uic.port_v3',
   '/home/sozin/bin/GitMaster/venv/lib/python3.8/site-packages/PyQt5/uic/port_v3/__init__.py',
   'PYMODULE'),
  ('PyQt5.uic.icon_cache',
   '/home/sozin/bin/GitMaster/venv/lib/python3.8/site-packages/PyQt5/uic/icon_cache.py',
   'PYMODULE'),
  ('PyQt5.uic.port_v2.string_io',
   '/home/sozin/bin/GitMaster/venv/lib/python3.8/site-packages/PyQt5/uic/port_v2/string_io.py',
   'PYMODULE'),
  ('PyQt5.uic.port_v2',
   '/home/sozin/bin/GitMaster/venv/lib/python3.8/site-packages/PyQt5/uic/port_v2/__init__.py',
   'PYMODULE'),
  ('PyQt5.uic.port_v3.string_io',
   '/home/sozin/bin/GitMaster/venv/lib/python3.8/site-packages/PyQt5/uic/port_v3/string_io.py',
   'PYMODULE'),
  ('PyQt5.uic.Compiler.compiler',
   '/home/sozin/bin/GitMaster/venv/lib/python3.8/site-packages/PyQt5/uic/Compiler/compiler.py',
   'PYMODULE'),
  ('PyQt5.uic.Compiler.qobjectcreator',
   '/home/sozin/bin/GitMaster/venv/lib/python3.8/site-packages/PyQt5/uic/Compiler/qobjectcreator.py',
   'PYMODULE'),
  ('PyQt5.uic.port_v2.as_string',
   '/home/sozin/bin/GitMaster/venv/lib/python3.8/site-packages/PyQt5/uic/port_v2/as_string.py',
   'PYMODULE'),
  ('PyQt5.uic.port_v3.as_string',
   '/home/sozin/bin/GitMaster/venv/lib/python3.8/site-packages/PyQt5/uic/port_v3/as_string.py',
   'PYMODULE'),
  ('PyQt5.uic.Compiler.qtproxies',
   '/home/sozin/bin/GitMaster/venv/lib/python3.8/site-packages/PyQt5/uic/Compiler/qtproxies.py',
   'PYMODULE'),
  ('PyQt5.uic.port_v2.proxy_base',
   '/home/sozin/bin/GitMaster/venv/lib/python3.8/site-packages/PyQt5/uic/port_v2/proxy_base.py',
   'PYMODULE'),
  ('PyQt5.uic.Compiler.proxy_metaclass',
   '/home/sozin/bin/GitMaster/venv/lib/python3.8/site-packages/PyQt5/uic/Compiler/proxy_metaclass.py',
   'PYMODULE'),
  ('PyQt5.uic.port_v3.proxy_base',
   '/home/sozin/bin/GitMaster/venv/lib/python3.8/site-packages/PyQt5/uic/port_v3/proxy_base.py',
   'PYMODULE'),
  ('PyQt5.uic.Compiler.misc',
   '/home/sozin/bin/GitMaster/venv/lib/python3.8/site-packages/PyQt5/uic/Compiler/misc.py',
   'PYMODULE'),
  ('PyQt5.uic.Compiler.indenter',
   '/home/sozin/bin/GitMaster/venv/lib/python3.8/site-packages/PyQt5/uic/Compiler/indenter.py',
   'PYMODULE'),
  ('PyQt5.uic.Compiler',
   '/home/sozin/bin/GitMaster/venv/lib/python3.8/site-packages/PyQt5/uic/Compiler/__init__.py',
   'PYMODULE'),
  ('PyQt5',
   '/home/sozin/bin/GitMaster/venv/lib/python3.8/site-packages/PyQt5/__init__.py',
   'PYMODULE'),
  ('git',
   '/home/sozin/bin/GitMaster/venv/lib/python3.8/site-packages/git/__init__.py',
   'PYMODULE'),
  ('git.util',
   '/home/sozin/bin/GitMaster/venv/lib/python3.8/site-packages/git/util.py',
   'PYMODULE'),
  ('git.compat',
   '/home/sozin/bin/GitMaster/venv/lib/python3.8/site-packages/git/compat.py',
   'PYMODULE'),
  ('gitdb.utils.encoding',
   '/home/sozin/bin/GitMaster/venv/lib/python3.8/site-packages/gitdb/utils/encoding.py',
   'PYMODULE'),
  ('gitdb.utils',
   '/home/sozin/bin/GitMaster/venv/lib/python3.8/site-packages/gitdb/utils/__init__.py',
   'PYMODULE'),
  ('gitdb.util',
   '/home/sozin/bin/GitMaster/venv/lib/python3.8/site-packages/gitdb/util.py',
   'PYMODULE'),
  ('gitdb.stream',
   '/home/sozin/bin/GitMaster/venv/lib/python3.8/site-packages/gitdb/stream.py',
   'PYMODULE'),
  ('gitdb.fun',
   '/home/sozin/bin/GitMaster/venv/lib/python3.8/site-packages/gitdb/fun.py',
   'PYMODULE'),
  ('gitdb.typ',
   '/home/sozin/bin/GitMaster/venv/lib/python3.8/site-packages/gitdb/typ.py',
   'PYMODULE'),
  ('gitdb.const',
   '/home/sozin/bin/GitMaster/venv/lib/python3.8/site-packages/gitdb/const.py',
   'PYMODULE'),
  ('smmap',
   '/home/sozin/bin/GitMaster/venv/lib/python3.8/site-packages/smmap/__init__.py',
   'PYMODULE'),
  ('smmap.buf',
   '/home/sozin/bin/GitMaster/venv/lib/python3.8/site-packages/smmap/buf.py',
   'PYMODULE'),
  ('smmap.mman',
   '/home/sozin/bin/GitMaster/venv/lib/python3.8/site-packages/smmap/mman.py',
   'PYMODULE'),
  ('smmap.util',
   '/home/sozin/bin/GitMaster/venv/lib/python3.8/site-packages/smmap/util.py',
   'PYMODULE'),
  ('git.index',
   '/home/sozin/bin/GitMaster/venv/lib/python3.8/site-packages/git/index/__init__.py',
   'PYMODULE'),
  ('git.index.typ',
   '/home/sozin/bin/GitMaster/venv/lib/python3.8/site-packages/git/index/typ.py',
   'PYMODULE'),
  ('git.index.util',
   '/home/sozin/bin/GitMaster/venv/lib/python3.8/site-packages/git/index/util.py',
   'PYMODULE'),
  ('git.index.base',
   '/home/sozin/bin/GitMaster/venv/lib/python3.8/site-packages/git/index/base.py',
   'PYMODULE'),
  ('git.index.fun',
   '/home/sozin/bin/GitMaster/venv/lib/python3.8/site-packages/git/index/fun.py',
   'PYMODULE'),
  ('git.objects.fun',
   '/home/sozin/bin/GitMaster/venv/lib/python3.8/site-packages/git/objects/fun.py',
   'PYMODULE'),
  ('gitdb.db',
   '/home/sozin/bin/GitMaster/venv/lib/python3.8/site-packages/gitdb/db/__init__.py',
   'PYMODULE'),
  ('gitdb.db.ref',
   '/home/sozin/bin/GitMaster/venv/lib/python3.8/site-packages/gitdb/db/ref.py',
   'PYMODULE'),
  ('gitdb.db.git',
   '/home/sozin/bin/GitMaster/venv/lib/python3.8/site-packages/gitdb/db/git.py',
   'PYMODULE'),
  ('gitdb.exc',
   '/home/sozin/bin/GitMaster/venv/lib/python3.8/site-packages/gitdb/exc.py',
   'PYMODULE'),
  ('gitdb.db.pack',
   '/home/sozin/bin/GitMaster/venv/lib/python3.8/site-packages/gitdb/db/pack.py',
   'PYMODULE'),
  ('gitdb.pack',
   '/home/sozin/bin/GitMaster/venv/lib/python3.8/site-packages/gitdb/pack.py',
   'PYMODULE'),
  ('gitdb.db.mem',
   '/home/sozin/bin/GitMaster/venv/lib/python3.8/site-packages/gitdb/db/mem.py',
   'PYMODULE'),
  ('gitdb.db.loose',
   '/home/sozin/bin/GitMaster/venv/lib/python3.8/site-packages/gitdb/db/loose.py',
   'PYMODULE'),
  ('gitdb.db.base',
   '/home/sozin/bin/GitMaster/venv/lib/python3.8/site-packages/gitdb/db/base.py',
   'PYMODULE'),
  ('gitdb.base',
   '/home/sozin/bin/GitMaster/venv/lib/python3.8/site-packages/gitdb/base.py',
   'PYMODULE'),
  ('git.objects.util',
   '/home/sozin/bin/GitMaster/venv/lib/python3.8/site-packages/git/objects/util.py',
   'PYMODULE'),
  ('git.objects.tree',
   '/home/sozin/bin/GitMaster/venv/lib/python3.8/site-packages/git/objects/tree.py',
   'PYMODULE'),
  ('git.objects.submodule.base',
   '/home/sozin/bin/GitMaster/venv/lib/python3.8/site-packages/git/objects/submodule/base.py',
   'PYMODULE'),
  ('git.objects.submodule',
   '/home/sozin/bin/GitMaster/venv/lib/python3.8/site-packages/git/objects/submodule/__init__.py',
   'PYMODULE'),
  ('git.objects.submodule.util',
   '/home/sozin/bin/GitMaster/venv/lib/python3.8/site-packages/git/objects/submodule/util.py',
   'PYMODULE'),
  ('uuid', '/usr/lib/python3.8/uuid.py', 'PYMODULE'),
  ('git.objects.base',
   '/home/sozin/bin/GitMaster/venv/lib/python3.8/site-packages/git/objects/base.py',
   'PYMODULE'),
  ('git.objects.blob',
   '/home/sozin/bin/GitMaster/venv/lib/python3.8/site-packages/git/objects/blob.py',
   'PYMODULE'),
  ('git.objects.tag',
   '/home/sozin/bin/GitMaster/venv/lib/python3.8/site-packages/git/objects/tag.py',
   'PYMODULE'),
  ('git.objects.commit',
   '/home/sozin/bin/GitMaster/venv/lib/python3.8/site-packages/git/objects/commit.py',
   'PYMODULE'),
  ('git.remote',
   '/home/sozin/bin/GitMaster/venv/lib/python3.8/site-packages/git/remote.py',
   'PYMODULE'),
  ('git.repo',
   '/home/sozin/bin/GitMaster/venv/lib/python3.8/site-packages/git/repo/__init__.py',
   'PYMODULE'),
  ('git.repo.base',
   '/home/sozin/bin/GitMaster/venv/lib/python3.8/site-packages/git/repo/base.py',
   'PYMODULE'),
  ('git.repo.fun',
   '/home/sozin/bin/GitMaster/venv/lib/python3.8/site-packages/git/repo/fun.py',
   'PYMODULE'),
  ('git.cmd',
   '/home/sozin/bin/GitMaster/venv/lib/python3.8/site-packages/git/cmd.py',
   'PYMODULE'),
  ('git.db',
   '/home/sozin/bin/GitMaster/venv/lib/python3.8/site-packages/git/db.py',
   'PYMODULE'),
  ('git.diff',
   '/home/sozin/bin/GitMaster/venv/lib/python3.8/site-packages/git/diff.py',
   'PYMODULE'),
  ('git.refs',
   '/home/sozin/bin/GitMaster/venv/lib/python3.8/site-packages/git/refs/__init__.py',
   'PYMODULE'),
  ('git.refs.log',
   '/home/sozin/bin/GitMaster/venv/lib/python3.8/site-packages/git/refs/log.py',
   'PYMODULE'),
  ('git.refs.remote',
   '/home/sozin/bin/GitMaster/venv/lib/python3.8/site-packages/git/refs/remote.py',
   'PYMODULE'),
  ('git.refs.tag',
   '/home/sozin/bin/GitMaster/venv/lib/python3.8/site-packages/git/refs/tag.py',
   'PYMODULE'),
  ('git.refs.head',
   '/home/sozin/bin/GitMaster/venv/lib/python3.8/site-packages/git/refs/head.py',
   'PYMODULE'),
  ('git.refs.reference',
   '/home/sozin/bin/GitMaster/venv/lib/python3.8/site-packages/git/refs/reference.py',
   'PYMODULE'),
  ('git.refs.symbolic',
   '/home/sozin/bin/GitMaster/venv/lib/python3.8/site-packages/git/refs/symbolic.py',
   'PYMODULE'),
  ('git.objects',
   '/home/sozin/bin/GitMaster/venv/lib/python3.8/site-packages/git/objects/__init__.py',
   'PYMODULE'),
  ('git.objects.submodule.root',
   '/home/sozin/bin/GitMaster/venv/lib/python3.8/site-packages/git/objects/submodule/root.py',
   'PYMODULE'),
  ('git.config',
   '/home/sozin/bin/GitMaster/venv/lib/python3.8/site-packages/git/config.py',
   'PYMODULE'),
  ('git.exc',
   '/home/sozin/bin/GitMaster/venv/lib/python3.8/site-packages/git/exc.py',
   'PYMODULE'),
  ('gitdb',
   '/home/sozin/bin/GitMaster/venv/lib/python3.8/site-packages/gitdb/__init__.py',
   'PYMODULE'),
  ('fbs_runtime.application_context.PyQt5',
   '/home/sozin/bin/GitMaster/venv/lib/python3.8/site-packages/fbs_runtime/application_context/PyQt5.py',
   'PYMODULE'),
  ('fbs_runtime.application_context',
   '/home/sozin/bin/GitMaster/venv/lib/python3.8/site-packages/fbs_runtime/application_context/__init__.py',
   'PYMODULE'),
  ('fbs_runtime.licensing',
   '/home/sozin/bin/GitMaster/venv/lib/python3.8/site-packages/fbs_runtime/licensing.py',
   'PYMODULE'),
  ('json', '/usr/lib/python3.8/json/__init__.py', 'PYMODULE'),
  ('json.encoder', '/usr/lib/python3.8/json/encoder.py', 'PYMODULE'),
  ('json.decoder', '/usr/lib/python3.8/json/decoder.py', 'PYMODULE'),
  ('json.scanner', '/usr/lib/python3.8/json/scanner.py', 'PYMODULE'),
  ('fbs_runtime.platform',
   '/home/sozin/bin/GitMaster/venv/lib/python3.8/site-packages/fbs_runtime/platform.py',
   'PYMODULE'),
  ('fbs_runtime.excepthook',
   '/home/sozin/bin/GitMaster/venv/lib/python3.8/site-packages/fbs_runtime/excepthook/__init__.py',
   'PYMODULE'),
  ('fbs_runtime._signal',
   '/home/sozin/bin/GitMaster/venv/lib/python3.8/site-packages/fbs_runtime/_signal.py',
   'PYMODULE'),
  ('fbs_runtime._resources',
   '/home/sozin/bin/GitMaster/venv/lib/python3.8/site-packages/fbs_runtime/_resources.py',
   'PYMODULE'),
  ('fbs_runtime._source',
   '/home/sozin/bin/GitMaster/venv/lib/python3.8/site-packages/fbs_runtime/_source.py',
   'PYMODULE'),
  ('fbs_runtime._settings',
   '/home/sozin/bin/GitMaster/venv/lib/python3.8/site-packages/fbs_runtime/_settings.py',
   'PYMODULE'),
  ('fbs_runtime._fbs',
   '/home/sozin/bin/GitMaster/venv/lib/python3.8/site-packages/fbs_runtime/_fbs.py',
   'PYMODULE'),
  ('fbs_runtime._frozen',
   '/home/sozin/bin/GitMaster/venv/lib/python3.8/site-packages/fbs_runtime/_frozen.py',
   'PYMODULE'),
  ('fbs_runtime._state',
   '/home/sozin/bin/GitMaster/venv/lib/python3.8/site-packages/fbs_runtime/_state.py',
   'PYMODULE'),
  ('fbs_runtime',
   '/home/sozin/bin/GitMaster/venv/lib/python3.8/site-packages/fbs_runtime/__init__.py',
   'PYMODULE')],
 [('libz.so.1', '/lib/x86_64-linux-gnu/libz.so.1', 'BINARY'),
  ('libexpat.so.1', '/lib/x86_64-linux-gnu/libexpat.so.1', 'BINARY'),
  ('PyQt5/Qt/plugins/platforms/libqvnc.so',
   '/home/sozin/bin/GitMaster/venv/lib/python3.8/site-packages/PyQt5/Qt/plugins/platforms/libqvnc.so',
   'BINARY'),
  ('PyQt5/Qt/plugins/platforms/libqxcb.so',
   '/home/sozin/bin/GitMaster/venv/lib/python3.8/site-packages/PyQt5/Qt/plugins/platforms/libqxcb.so',
   'BINARY'),
  ('PyQt5/Qt/plugins/bearer/libqconnmanbearer.so',
   '/home/sozin/bin/GitMaster/venv/lib/python3.8/site-packages/PyQt5/Qt/plugins/bearer/libqconnmanbearer.so',
   'BINARY'),
  ('PyQt5/Qt/plugins/imageformats/libqwebp.so',
   '/home/sozin/bin/GitMaster/venv/lib/python3.8/site-packages/PyQt5/Qt/plugins/imageformats/libqwebp.so',
   'BINARY'),
  ('PyQt5/Qt/plugins/iconengines/libqsvgicon.so',
   '/home/sozin/bin/GitMaster/venv/lib/python3.8/site-packages/PyQt5/Qt/plugins/iconengines/libqsvgicon.so',
   'BINARY'),
  ('PyQt5/Qt/plugins/imageformats/libqgif.so',
   '/home/sozin/bin/GitMaster/venv/lib/python3.8/site-packages/PyQt5/Qt/plugins/imageformats/libqgif.so',
   'BINARY'),
  ('PyQt5/Qt/plugins/platformthemes/libqxdgdesktopportal.so',
   '/home/sozin/bin/GitMaster/venv/lib/python3.8/site-packages/PyQt5/Qt/plugins/platformthemes/libqxdgdesktopportal.so',
   'BINARY'),
  ('PyQt5/Qt/plugins/platforms/libqwayland-egl.so',
   '/home/sozin/bin/GitMaster/venv/lib/python3.8/site-packages/PyQt5/Qt/plugins/platforms/libqwayland-egl.so',
   'BINARY'),
  ('PyQt5/Qt/plugins/imageformats/libqsvg.so',
   '/home/sozin/bin/GitMaster/venv/lib/python3.8/site-packages/PyQt5/Qt/plugins/imageformats/libqsvg.so',
   'BINARY'),
  ('PyQt5/Qt/plugins/imageformats/libqtga.so',
   '/home/sozin/bin/GitMaster/venv/lib/python3.8/site-packages/PyQt5/Qt/plugins/imageformats/libqtga.so',
   'BINARY'),
  ('PyQt5/Qt/plugins/platforms/libqminimal.so',
   '/home/sozin/bin/GitMaster/venv/lib/python3.8/site-packages/PyQt5/Qt/plugins/platforms/libqminimal.so',
   'BINARY'),
  ('PyQt5/Qt/plugins/platformthemes/libqgtk3.so',
   '/home/sozin/bin/GitMaster/venv/lib/python3.8/site-packages/PyQt5/Qt/plugins/platformthemes/libqgtk3.so',
   'BINARY'),
  ('PyQt5/Qt/plugins/platforms/libqwebgl.so',
   '/home/sozin/bin/GitMaster/venv/lib/python3.8/site-packages/PyQt5/Qt/plugins/platforms/libqwebgl.so',
   'BINARY'),
  ('PyQt5/Qt/plugins/platforms/libqwayland-xcomposite-egl.so',
   '/home/sozin/bin/GitMaster/venv/lib/python3.8/site-packages/PyQt5/Qt/plugins/platforms/libqwayland-xcomposite-egl.so',
   'BINARY'),
  ('PyQt5/Qt/plugins/platforms/libqwayland-generic.so',
   '/home/sozin/bin/GitMaster/venv/lib/python3.8/site-packages/PyQt5/Qt/plugins/platforms/libqwayland-generic.so',
   'BINARY'),
  ('PyQt5/Qt/plugins/bearer/libqnmbearer.so',
   '/home/sozin/bin/GitMaster/venv/lib/python3.8/site-packages/PyQt5/Qt/plugins/bearer/libqnmbearer.so',
   'BINARY'),
  ('PyQt5/Qt/plugins/imageformats/libqico.so',
   '/home/sozin/bin/GitMaster/venv/lib/python3.8/site-packages/PyQt5/Qt/plugins/imageformats/libqico.so',
   'BINARY'),
  ('PyQt5/Qt/plugins/platforms/libqwayland-xcomposite-glx.so',
   '/home/sozin/bin/GitMaster/venv/lib/python3.8/site-packages/PyQt5/Qt/plugins/platforms/libqwayland-xcomposite-glx.so',
   'BINARY'),
  ('PyQt5/Qt/plugins/bearer/libqgenericbearer.so',
   '/home/sozin/bin/GitMaster/venv/lib/python3.8/site-packages/PyQt5/Qt/plugins/bearer/libqgenericbearer.so',
   'BINARY'),
  ('PyQt5/Qt/plugins/platforms/libqoffscreen.so',
   '/home/sozin/bin/GitMaster/venv/lib/python3.8/site-packages/PyQt5/Qt/plugins/platforms/libqoffscreen.so',
   'BINARY'),
  ('PyQt5/Qt/plugins/imageformats/libqicns.so',
   '/home/sozin/bin/GitMaster/venv/lib/python3.8/site-packages/PyQt5/Qt/plugins/imageformats/libqicns.so',
   'BINARY'),
  ('PyQt5/Qt/plugins/platforminputcontexts/libcomposeplatforminputcontextplugin.so',
   '/home/sozin/bin/GitMaster/venv/lib/python3.8/site-packages/PyQt5/Qt/plugins/platforminputcontexts/libcomposeplatforminputcontextplugin.so',
   'BINARY'),
  ('PyQt5/Qt/plugins/imageformats/libqtiff.so',
   '/home/sozin/bin/GitMaster/venv/lib/python3.8/site-packages/PyQt5/Qt/plugins/imageformats/libqtiff.so',
   'BINARY'),
  ('PyQt5/Qt/plugins/platforms/libqeglfs.so',
   '/home/sozin/bin/GitMaster/venv/lib/python3.8/site-packages/PyQt5/Qt/plugins/platforms/libqeglfs.so',
   'BINARY'),
  ('PyQt5/Qt/plugins/imageformats/libqjpeg.so',
   '/home/sozin/bin/GitMaster/venv/lib/python3.8/site-packages/PyQt5/Qt/plugins/imageformats/libqjpeg.so',
   'BINARY'),
  ('PyQt5/Qt/plugins/platforminputcontexts/libibusplatforminputcontextplugin.so',
   '/home/sozin/bin/GitMaster/venv/lib/python3.8/site-packages/PyQt5/Qt/plugins/platforminputcontexts/libibusplatforminputcontextplugin.so',
   'BINARY'),
  ('PyQt5/Qt/plugins/platforms/libqminimalegl.so',
   '/home/sozin/bin/GitMaster/venv/lib/python3.8/site-packages/PyQt5/Qt/plugins/platforms/libqminimalegl.so',
   'BINARY'),
  ('PyQt5/Qt/plugins/imageformats/libqwbmp.so',
   '/home/sozin/bin/GitMaster/venv/lib/python3.8/site-packages/PyQt5/Qt/plugins/imageformats/libqwbmp.so',
   'BINARY'),
  ('PyQt5/Qt/plugins/platforms/libqlinuxfb.so',
   '/home/sozin/bin/GitMaster/venv/lib/python3.8/site-packages/PyQt5/Qt/plugins/platforms/libqlinuxfb.so',
   'BINARY'),
  ('_ssl',
   '/usr/lib/python3.8/lib-dynload/_ssl.cpython-38-x86_64-linux-gnu.so',
   'EXTENSION'),
  ('_codecs_hk',
   '/usr/lib/python3.8/lib-dynload/_codecs_hk.cpython-38-x86_64-linux-gnu.so',
   'EXTENSION'),
  ('_codecs_cn',
   '/usr/lib/python3.8/lib-dynload/_codecs_cn.cpython-38-x86_64-linux-gnu.so',
   'EXTENSION'),
  ('_codecs_tw',
   '/usr/lib/python3.8/lib-dynload/_codecs_tw.cpython-38-x86_64-linux-gnu.so',
   'EXTENSION'),
  ('_codecs_iso2022',
   '/usr/lib/python3.8/lib-dynload/_codecs_iso2022.cpython-38-x86_64-linux-gnu.so',
   'EXTENSION'),
  ('_codecs_jp',
   '/usr/lib/python3.8/lib-dynload/_codecs_jp.cpython-38-x86_64-linux-gnu.so',
   'EXTENSION'),
  ('_codecs_kr',
   '/usr/lib/python3.8/lib-dynload/_codecs_kr.cpython-38-x86_64-linux-gnu.so',
   'EXTENSION'),
  ('_multibytecodec',
   '/usr/lib/python3.8/lib-dynload/_multibytecodec.cpython-38-x86_64-linux-gnu.so',
   'EXTENSION'),
  ('_bz2',
   '/usr/lib/python3.8/lib-dynload/_bz2.cpython-38-x86_64-linux-gnu.so',
   'EXTENSION'),
  ('_lzma',
   '/usr/lib/python3.8/lib-dynload/_lzma.cpython-38-x86_64-linux-gnu.so',
   'EXTENSION'),
  ('_hashlib',
   '/usr/lib/python3.8/lib-dynload/_hashlib.cpython-38-x86_64-linux-gnu.so',
   'EXTENSION'),
  ('_opcode',
   '/usr/lib/python3.8/lib-dynload/_opcode.cpython-38-x86_64-linux-gnu.so',
   'EXTENSION'),
  ('readline',
   '/usr/lib/python3.8/lib-dynload/readline.cpython-38-x86_64-linux-gnu.so',
   'EXTENSION'),
  ('_multiprocessing',
   '/usr/lib/python3.8/lib-dynload/_multiprocessing.cpython-38-x86_64-linux-gnu.so',
   'EXTENSION'),
  ('resource',
   '/usr/lib/python3.8/lib-dynload/resource.cpython-38-x86_64-linux-gnu.so',
   'EXTENSION'),
  ('_ctypes',
   '/usr/lib/python3.8/lib-dynload/_ctypes.cpython-38-x86_64-linux-gnu.so',
   'EXTENSION'),
  ('termios',
   '/usr/lib/python3.8/lib-dynload/termios.cpython-38-x86_64-linux-gnu.so',
   'EXTENSION'),
  ('_testcapi',
   '/usr/lib/python3.8/lib-dynload/_testcapi.cpython-38-x86_64-linux-gnu.so',
   'EXTENSION'),
  ('_decimal',
   '/usr/lib/python3.8/lib-dynload/_decimal.cpython-38-x86_64-linux-gnu.so',
   'EXTENSION'),
  ('_posixshmem',
   '/usr/lib/python3.8/lib-dynload/_posixshmem.cpython-38-x86_64-linux-gnu.so',
   'EXTENSION'),
  ('mmap',
   '/usr/lib/python3.8/lib-dynload/mmap.cpython-38-x86_64-linux-gnu.so',
   'EXTENSION'),
  ('_queue',
   '/usr/lib/python3.8/lib-dynload/_queue.cpython-38-x86_64-linux-gnu.so',
   'EXTENSION'),
  ('_contextvars',
   '/usr/lib/python3.8/lib-dynload/_contextvars.cpython-38-x86_64-linux-gnu.so',
   'EXTENSION'),
  ('_asyncio',
   '/usr/lib/python3.8/lib-dynload/_asyncio.cpython-38-x86_64-linux-gnu.so',
   'EXTENSION'),
  ('PyQt5.QtWidgets',
   '/home/sozin/bin/GitMaster/venv/lib/python3.8/site-packages/PyQt5/QtWidgets.abi3.so',
   'EXTENSION'),
  ('PyQt5.QtGui',
   '/home/sozin/bin/GitMaster/venv/lib/python3.8/site-packages/PyQt5/QtGui.abi3.so',
   'EXTENSION'),
  ('PyQt5.QtCore',
   '/home/sozin/bin/GitMaster/venv/lib/python3.8/site-packages/PyQt5/QtCore.abi3.so',
   'EXTENSION'),
  ('PyQt5.sip',
   '/home/sozin/bin/GitMaster/venv/lib/python3.8/site-packages/PyQt5/sip.cpython-38-x86_64-linux-gnu.so',
   'EXTENSION'),
  ('_uuid',
   '/usr/lib/python3.8/lib-dynload/_uuid.cpython-38-x86_64-linux-gnu.so',
   'EXTENSION'),
  ('PyQt5.QtNetwork',
   '/home/sozin/bin/GitMaster/venv/lib/python3.8/site-packages/PyQt5/QtNetwork.abi3.so',
   'EXTENSION'),
  ('_json',
   '/usr/lib/python3.8/lib-dynload/_json.cpython-38-x86_64-linux-gnu.so',
   'EXTENSION'),
  ('libX11.so.6', '/lib/x86_64-linux-gnu/libX11.so.6', 'BINARY'),
  ('libpcre.so.3', '/lib/x86_64-linux-gnu/libpcre.so.3', 'BINARY'),
  ('libicudata.so.56',
   '/home/sozin/bin/GitMaster/venv/lib/python3.8/site-packages/PyQt5/Qt/plugins/platforms/../../lib/libicudata.so.56',
   'BINARY'),
  ('libsystemd.so.0', '/lib/x86_64-linux-gnu/libsystemd.so.0', 'BINARY'),
  ('libGLdispatch.so.0', '/lib/x86_64-linux-gnu/libGLdispatch.so.0', 'BINARY'),
  ('libkeyutils.so.1', '/lib/x86_64-linux-gnu/libkeyutils.so.1', 'BINARY'),
  ('libfreetype.so.6', '/lib/x86_64-linux-gnu/libfreetype.so.6', 'BINARY'),
  ('libcom_err.so.2', '/lib/x86_64-linux-gnu/libcom_err.so.2', 'BINARY'),
  ('libgssapi_krb5.so.2',
   '/lib/x86_64-linux-gnu/libgssapi_krb5.so.2',
   'BINARY'),
  ('libXau.so.6', '/lib/x86_64-linux-gnu/libXau.so.6', 'BINARY'),
  ('libgthread-2.0.so.0',
   '/lib/x86_64-linux-gnu/libgthread-2.0.so.0',
   'BINARY'),
  ('libstdc++.so.6', '/lib/x86_64-linux-gnu/libstdc++.so.6', 'BINARY'),
  ('libicuuc.so.56',
   '/home/sozin/bin/GitMaster/venv/lib/python3.8/site-packages/PyQt5/Qt/plugins/platforms/../../lib/libicuuc.so.56',
   'BINARY'),
  ('libicui18n.so.56',
   '/home/sozin/bin/GitMaster/venv/lib/python3.8/site-packages/PyQt5/Qt/plugins/platforms/../../lib/libicui18n.so.56',
   'BINARY'),
  ('libk5crypto.so.3', '/lib/x86_64-linux-gnu/libk5crypto.so.3', 'BINARY'),
  ('libglib-2.0.so.0', '/lib/x86_64-linux-gnu/libglib-2.0.so.0', 'BINARY'),
  ('liblz4.so.1', '/lib/x86_64-linux-gnu/liblz4.so.1', 'BINARY'),
  ('libdbus-1.so.3', '/lib/x86_64-linux-gnu/libdbus-1.so.3', 'BINARY'),
  ('libgcrypt.so.20', '/lib/x86_64-linux-gnu/libgcrypt.so.20', 'BINARY'),
  ('libGLX.so.0', '/lib/x86_64-linux-gnu/libGLX.so.0', 'BINARY'),
  ('libQt5Core.so.5',
   '/home/sozin/bin/GitMaster/venv/lib/python3.8/site-packages/PyQt5/Qt/plugins/platforms/../../lib/libQt5Core.so.5',
   'BINARY'),
  ('libXdmcp.so.6', '/lib/x86_64-linux-gnu/libXdmcp.so.6', 'BINARY'),
  ('libkrb5.so.3', '/lib/x86_64-linux-gnu/libkrb5.so.3', 'BINARY'),
  ('libbsd.so.0', '/lib/x86_64-linux-gnu/libbsd.so.0', 'BINARY'),
  ('libQt5Network.so.5',
   '/home/sozin/bin/GitMaster/venv/lib/python3.8/site-packages/PyQt5/Qt/plugins/platforms/../../lib/libQt5Network.so.5',
   'BINARY'),
  ('libkrb5support.so.0',
   '/lib/x86_64-linux-gnu/libkrb5support.so.0',
   'BINARY'),
  ('libQt5Gui.so.5',
   '/home/sozin/bin/GitMaster/venv/lib/python3.8/site-packages/PyQt5/Qt/plugins/platforms/../../lib/libQt5Gui.so.5',
   'BINARY'),
  ('liblzma.so.5', '/lib/x86_64-linux-gnu/liblzma.so.5', 'BINARY'),
  ('libgpg-error.so.0', '/lib/x86_64-linux-gnu/libgpg-error.so.0', 'BINARY'),
  ('libgcc_s.so.1', '/lib/x86_64-linux-gnu/libgcc_s.so.1', 'BINARY'),
  ('libfontconfig.so.1', '/lib/x86_64-linux-gnu/libfontconfig.so.1', 'BINARY'),
  ('libuuid.so.1', '/lib/x86_64-linux-gnu/libuuid.so.1', 'BINARY'),
  ('libpng16.so.16', '/lib/x86_64-linux-gnu/libpng16.so.16', 'BINARY'),
  ('libQt5DBus.so.5',
   '/home/sozin/bin/GitMaster/venv/lib/python3.8/site-packages/PyQt5/Qt/plugins/platforms/../../lib/libQt5DBus.so.5',
   'BINARY'),
  ('libxcb-render.so.0', '/lib/x86_64-linux-gnu/libxcb-render.so.0', 'BINARY'),
  ('libxcb-image.so.0', '/lib/x86_64-linux-gnu/libxcb-image.so.0', 'BINARY'),
  ('libXext.so.6', '/lib/x86_64-linux-gnu/libXext.so.6', 'BINARY'),
  ('libxcb-render-util.so.0',
   '/lib/x86_64-linux-gnu/libxcb-render-util.so.0',
   'BINARY'),
  ('libxcb-icccm.so.4', '/lib/x86_64-linux-gnu/libxcb-icccm.so.4', 'BINARY'),
  ('libxcb-shm.so.0', '/lib/x86_64-linux-gnu/libxcb-shm.so.0', 'BINARY'),
  ('libxcb-util.so.1', '/lib/x86_64-linux-gnu/libxcb-util.so.1', 'BINARY'),
  ('libQt5XcbQpa.so.5',
   '/home/sozin/bin/GitMaster/venv/lib/python3.8/site-packages/PyQt5/Qt/plugins/platforms/../../lib/libQt5XcbQpa.so.5',
   'BINARY'),
  ('libX11-xcb.so.1', '/lib/x86_64-linux-gnu/libX11-xcb.so.1', 'BINARY'),
  ('libxcb-shape.so.0', '/lib/x86_64-linux-gnu/libxcb-shape.so.0', 'BINARY'),
  ('libxcb-xfixes.so.0', '/lib/x86_64-linux-gnu/libxcb-xfixes.so.0', 'BINARY'),
  ('libxcb-xinerama.so.0',
   '/lib/x86_64-linux-gnu/libxcb-xinerama.so.0',
   'BINARY'),
  ('libxcb-sync.so.1', '/lib/x86_64-linux-gnu/libxcb-sync.so.1', 'BINARY'),
  ('libxcb-keysyms.so.1',
   '/lib/x86_64-linux-gnu/libxcb-keysyms.so.1',
   'BINARY'),
  ('libxkbcommon.so.0', '/lib/x86_64-linux-gnu/libxkbcommon.so.0', 'BINARY'),
  ('libxkbcommon-x11.so.0',
   '/lib/x86_64-linux-gnu/libxkbcommon-x11.so.0',
   'BINARY'),
  ('libxcb-randr.so.0', '/lib/x86_64-linux-gnu/libxcb-randr.so.0', 'BINARY'),
  ('libxcb-xkb.so.1', '/lib/x86_64-linux-gnu/libxcb-xkb.so.1', 'BINARY'),
  ('libQt5Widgets.so.5',
   '/home/sozin/bin/GitMaster/venv/lib/python3.8/site-packages/PyQt5/Qt/plugins/iconengines/../../lib/libQt5Widgets.so.5',
   'BINARY'),
  ('libQt5Svg.so.5',
   '/home/sozin/bin/GitMaster/venv/lib/python3.8/site-packages/PyQt5/Qt/plugins/iconengines/../../lib/libQt5Svg.so.5',
   'BINARY'),
  ('libQt5WaylandClient.so.5',
   '/home/sozin/bin/GitMaster/venv/lib/python3.8/site-packages/PyQt5/Qt/plugins/platforms/../../lib/libQt5WaylandClient.so.5',
   'BINARY'),
  ('libwayland-egl.so.1',
   '/lib/x86_64-linux-gnu/libwayland-egl.so.1',
   'BINARY'),
  ('libwayland-client.so.0',
   '/lib/x86_64-linux-gnu/libwayland-client.so.0',
   'BINARY'),
  ('libffi.so.7', '/lib/x86_64-linux-gnu/libffi.so.7', 'BINARY'),
  ('libwayland-cursor.so.0',
   '/lib/x86_64-linux-gnu/libwayland-cursor.so.0',
   'BINARY'),
  ('libEGL.so.1', '/lib/x86_64-linux-gnu/libEGL.so.1', 'BINARY'),
  ('libXdamage.so.1', '/lib/x86_64-linux-gnu/libXdamage.so.1', 'BINARY'),
  ('libgtk-3.so.0', '/lib/x86_64-linux-gnu/libgtk-3.so.0', 'BINARY'),
  ('libXrandr.so.2', '/lib/x86_64-linux-gnu/libXrandr.so.2', 'BINARY'),
  ('libatk-bridge-2.0.so.0',
   '/lib/x86_64-linux-gnu/libatk-bridge-2.0.so.0',
   'BINARY'),
  ('libpangocairo-1.0.so.0',
   '/lib/x86_64-linux-gnu/libpangocairo-1.0.so.0',
   'BINARY'),
  ('libgraphite2.so.3', '/lib/x86_64-linux-gnu/libgraphite2.so.3', 'BINARY'),
  ('libgobject-2.0.so.0',
   '/lib/x86_64-linux-gnu/libgobject-2.0.so.0',
   'BINARY'),
  ('libepoxy.so.0', '/lib/x86_64-linux-gnu/libepoxy.so.0', 'BINARY'),
  ('libcairo-gobject.so.2',
   '/lib/x86_64-linux-gnu/libcairo-gobject.so.2',
   'BINARY'),
  ('libgio-2.0.so.0', '/lib/x86_64-linux-gnu/libgio-2.0.so.0', 'BINARY'),
  ('libpcre2-8.so.0', '/lib/x86_64-linux-gnu/libpcre2-8.so.0', 'BINARY'),
  ('libpangoft2-1.0.so.0',
   '/lib/x86_64-linux-gnu/libpangoft2-1.0.so.0',
   'BINARY'),
  ('libfribidi.so.0', '/lib/x86_64-linux-gnu/libfribidi.so.0', 'BINARY'),
  ('libatk-1.0.so.0', '/lib/x86_64-linux-gnu/libatk-1.0.so.0', 'BINARY'),
  ('libpixman-1.so.0', '/lib/x86_64-linux-gnu/libpixman-1.so.0', 'BINARY'),
  ('libXcomposite.so.1', '/lib/x86_64-linux-gnu/libXcomposite.so.1', 'BINARY'),
  ('libXcursor.so.1', '/lib/x86_64-linux-gnu/libXcursor.so.1', 'BINARY'),
  ('libthai.so.0', '/lib/x86_64-linux-gnu/libthai.so.0', 'BINARY'),
  ('libharfbuzz.so.0', '/lib/x86_64-linux-gnu/libharfbuzz.so.0', 'BINARY'),
  ('libblkid.so.1', '/lib/x86_64-linux-gnu/libblkid.so.1', 'BINARY'),
  ('libselinux.so.1', '/lib/x86_64-linux-gnu/libselinux.so.1', 'BINARY'),
  ('libXi.so.6', '/lib/x86_64-linux-gnu/libXi.so.6', 'BINARY'),
  ('libdatrie.so.1', '/lib/x86_64-linux-gnu/libdatrie.so.1', 'BINARY'),
  ('libXfixes.so.3', '/lib/x86_64-linux-gnu/libXfixes.so.3', 'BINARY'),
  ('libgdk-3.so.0', '/lib/x86_64-linux-gnu/libgdk-3.so.0', 'BINARY'),
  ('libatspi.so.0', '/lib/x86_64-linux-gnu/libatspi.so.0', 'BINARY'),
  ('libmount.so.1', '/lib/x86_64-linux-gnu/libmount.so.1', 'BINARY'),
  ('libXrender.so.1', '/lib/x86_64-linux-gnu/libXrender.so.1', 'BINARY'),
  ('libXinerama.so.1', '/lib/x86_64-linux-gnu/libXinerama.so.1', 'BINARY'),
  ('libgmodule-2.0.so.0',
   '/lib/x86_64-linux-gnu/libgmodule-2.0.so.0',
   'BINARY'),
  ('libpango-1.0.so.0', '/lib/x86_64-linux-gnu/libpango-1.0.so.0', 'BINARY'),
  ('libcairo.so.2', '/lib/x86_64-linux-gnu/libcairo.so.2', 'BINARY'),
  ('libgdk_pixbuf-2.0.so.0',
   '/lib/x86_64-linux-gnu/libgdk_pixbuf-2.0.so.0',
   'BINARY'),
  ('libQt5WebSockets.so.5',
   '/home/sozin/bin/GitMaster/venv/lib/python3.8/site-packages/PyQt5/Qt/plugins/platforms/../../lib/libQt5WebSockets.so.5',
   'BINARY'),
  ('libQt5Quick.so.5',
   '/home/sozin/bin/GitMaster/venv/lib/python3.8/site-packages/PyQt5/Qt/plugins/platforms/../../lib/libQt5Quick.so.5',
   'BINARY'),
  ('libQt5QmlModels.so.5',
   '/home/sozin/bin/GitMaster/venv/lib/python3.8/site-packages/PyQt5/Qt/plugins/platforms/../../lib/libQt5QmlModels.so.5',
   'BINARY'),
  ('libQt5Qml.so.5',
   '/home/sozin/bin/GitMaster/venv/lib/python3.8/site-packages/PyQt5/Qt/plugins/platforms/../../lib/libQt5Qml.so.5',
   'BINARY'),
  ('libevdev.so.2', '/lib/x86_64-linux-gnu/libevdev.so.2', 'BINARY'),
  ('libQt5EglFSDeviceIntegration.so.5',
   '/lib/x86_64-linux-gnu/libQt5EglFSDeviceIntegration.so.5',
   'BINARY'),
  ('libwacom.so.2', '/lib/x86_64-linux-gnu/libwacom.so.2', 'BINARY'),
  ('libinput.so.10', '/lib/x86_64-linux-gnu/libinput.so.10', 'BINARY'),
  ('libgudev-1.0.so.0', '/lib/x86_64-linux-gnu/libgudev-1.0.so.0', 'BINARY'),
  ('libmtdev.so.1', '/lib/x86_64-linux-gnu/libmtdev.so.1', 'BINARY'),
  ('libudev.so.1', '/lib/x86_64-linux-gnu/libudev.so.1', 'BINARY'),
  ('libdrm.so.2', '/lib/x86_64-linux-gnu/libdrm.so.2', 'BINARY'),
  ('libssl.so.1.1', '/lib/x86_64-linux-gnu/libssl.so.1.1', 'BINARY'),
  ('libcrypto.so.1.1', '/lib/x86_64-linux-gnu/libcrypto.so.1.1', 'BINARY'),
  ('libbz2.so.1.0', '/lib/x86_64-linux-gnu/libbz2.so.1.0', 'BINARY'),
  ('libreadline.so.8', '/lib/x86_64-linux-gnu/libreadline.so.8', 'BINARY'),
  ('libtinfo.so.6', '/lib/x86_64-linux-gnu/libtinfo.so.6', 'BINARY'),
  ('libmpdec.so.2', '/lib/x86_64-linux-gnu/libmpdec.so.2', 'BINARY'),
  ('libicuuc.so.66', '/lib/x86_64-linux-gnu/libicuuc.so.66', 'BINARY'),
  ('libicui18n.so.66', '/lib/x86_64-linux-gnu/libicui18n.so.66', 'BINARY'),
  ('libdouble-conversion.so.3',
   '/lib/x86_64-linux-gnu/libdouble-conversion.so.3',
   'BINARY'),
  ('libicudata.so.66', '/lib/x86_64-linux-gnu/libicudata.so.66', 'BINARY'),
  ('libpcre2-16.so.0', '/lib/x86_64-linux-gnu/libpcre2-16.so.0', 'BINARY'),
  ('libpython3.8.so.1.0',
   '/lib/x86_64-linux-gnu/libpython3.8.so.1.0',
   'BINARY')],
 [],
 [],
 [('base_library.zip',
   '/home/sozin/bin/GitMaster/target/PyInstaller/GitMaster/base_library.zip',
   'DATA'),
  ('PyQt5/Qt/translations/qtbase_sk.qm',
   '/home/sozin/bin/GitMaster/venv/lib/python3.8/site-packages/PyQt5/Qt/translations/qtbase_sk.qm',
   'DATA'),
  ('PyQt5/uic/widget-plugins/qscintilla.py',
   '/home/sozin/bin/GitMaster/venv/lib/python3.8/site-packages/PyQt5/uic/widget-plugins/qscintilla.py',
   'DATA'),
  ('PyQt5/Qt/translations/qtbase_ja.qm',
   '/home/sozin/bin/GitMaster/venv/lib/python3.8/site-packages/PyQt5/Qt/translations/qtbase_ja.qm',
   'DATA'),
  ('lib2to3/PatternGrammar.txt',
   '/usr/lib/python3.8/lib2to3/PatternGrammar.txt',
   'DATA'),
  ('PyQt5/uic/widget-plugins/__pycache__/qtquickwidgets.cpython-38.pyc',
   '/home/sozin/bin/GitMaster/venv/lib/python3.8/site-packages/PyQt5/uic/widget-plugins/__pycache__/qtquickwidgets.cpython-38.pyc',
   'DATA'),
  ('PyQt5/Qt/translations/qtbase_zh_TW.qm',
   '/home/sozin/bin/GitMaster/venv/lib/python3.8/site-packages/PyQt5/Qt/translations/qtbase_zh_TW.qm',
   'DATA'),
  ('PyQt5/Qt/translations/qtbase_da.qm',
   '/home/sozin/bin/GitMaster/venv/lib/python3.8/site-packages/PyQt5/Qt/translations/qtbase_da.qm',
   'DATA'),
  ('PyQt5/uic/widget-plugins/qtwebkit.py',
   '/home/sozin/bin/GitMaster/venv/lib/python3.8/site-packages/PyQt5/uic/widget-plugins/qtwebkit.py',
   'DATA'),
  ('PyQt5/Qt/translations/qtbase_fi.qm',
   '/home/sozin/bin/GitMaster/venv/lib/python3.8/site-packages/PyQt5/Qt/translations/qtbase_fi.qm',
   'DATA'),
  ('PyQt5/Qt/translations/qtbase_ar.qm',
   '/home/sozin/bin/GitMaster/venv/lib/python3.8/site-packages/PyQt5/Qt/translations/qtbase_ar.qm',
   'DATA'),
  ('PyQt5/uic/widget-plugins/__pycache__/qtwebenginewidgets.cpython-38.pyc',
   '/home/sozin/bin/GitMaster/venv/lib/python3.8/site-packages/PyQt5/uic/widget-plugins/__pycache__/qtwebenginewidgets.cpython-38.pyc',
   'DATA'),
  ('PyQt5/uic/widget-plugins/__pycache__/qtprintsupport.cpython-38.pyc',
   '/home/sozin/bin/GitMaster/venv/lib/python3.8/site-packages/PyQt5/uic/widget-plugins/__pycache__/qtprintsupport.cpython-38.pyc',
   'DATA'),
  ('PyQt5/Qt/translations/qtbase_lv.qm',
   '/home/sozin/bin/GitMaster/venv/lib/python3.8/site-packages/PyQt5/Qt/translations/qtbase_lv.qm',
   'DATA'),
  ('PyQt5/Qt/translations/qtbase_ko.qm',
   '/home/sozin/bin/GitMaster/venv/lib/python3.8/site-packages/PyQt5/Qt/translations/qtbase_ko.qm',
   'DATA'),
  ('PyQt5/Qt/translations/qtbase_he.qm',
   '/home/sozin/bin/GitMaster/venv/lib/python3.8/site-packages/PyQt5/Qt/translations/qtbase_he.qm',
   'DATA'),
  ('PyQt5/Qt/translations/qtbase_pl.qm',
   '/home/sozin/bin/GitMaster/venv/lib/python3.8/site-packages/PyQt5/Qt/translations/qtbase_pl.qm',
   'DATA'),
  ('PyQt5/Qt/translations/qtbase_fr.qm',
   '/home/sozin/bin/GitMaster/venv/lib/python3.8/site-packages/PyQt5/Qt/translations/qtbase_fr.qm',
   'DATA'),
  ('PyQt5/uic/widget-plugins/__pycache__/qtwebkit.cpython-38.pyc',
   '/home/sozin/bin/GitMaster/venv/lib/python3.8/site-packages/PyQt5/uic/widget-plugins/__pycache__/qtwebkit.cpython-38.pyc',
   'DATA'),
  ('PyQt5/Qt/translations/qtbase_uk.qm',
   '/home/sozin/bin/GitMaster/venv/lib/python3.8/site-packages/PyQt5/Qt/translations/qtbase_uk.qm',
   'DATA'),
  ('PyQt5/Qt/translations/qtbase_cs.qm',
   '/home/sozin/bin/GitMaster/venv/lib/python3.8/site-packages/PyQt5/Qt/translations/qtbase_cs.qm',
   'DATA'),
  ('PyQt5/Qt/translations/qtbase_ru.qm',
   '/home/sozin/bin/GitMaster/venv/lib/python3.8/site-packages/PyQt5/Qt/translations/qtbase_ru.qm',
   'DATA'),
  ('PyQt5/Qt/translations/qtbase_de.qm',
   '/home/sozin/bin/GitMaster/venv/lib/python3.8/site-packages/PyQt5/Qt/translations/qtbase_de.qm',
   'DATA'),
  ('PyQt5/uic/widget-plugins/qaxcontainer.py',
   '/home/sozin/bin/GitMaster/venv/lib/python3.8/site-packages/PyQt5/uic/widget-plugins/qaxcontainer.py',
   'DATA'),
  ('PyQt5/uic/widget-plugins/__pycache__/qtcharts.cpython-38.pyc',
   '/home/sozin/bin/GitMaster/venv/lib/python3.8/site-packages/PyQt5/uic/widget-plugins/__pycache__/qtcharts.cpython-38.pyc',
   'DATA'),
  ('PyQt5/uic/widget-plugins/qtwebenginewidgets.py',
   '/home/sozin/bin/GitMaster/venv/lib/python3.8/site-packages/PyQt5/uic/widget-plugins/qtwebenginewidgets.py',
   'DATA'),
  ('PyQt5/Qt/translations/qtbase_hu.qm',
   '/home/sozin/bin/GitMaster/venv/lib/python3.8/site-packages/PyQt5/Qt/translations/qtbase_hu.qm',
   'DATA'),
  ('PyQt5/uic/widget-plugins/qtprintsupport.py',
   '/home/sozin/bin/GitMaster/venv/lib/python3.8/site-packages/PyQt5/uic/widget-plugins/qtprintsupport.py',
   'DATA'),
  ('PyQt5/uic/widget-plugins/qtquickwidgets.py',
   '/home/sozin/bin/GitMaster/venv/lib/python3.8/site-packages/PyQt5/uic/widget-plugins/qtquickwidgets.py',
   'DATA'),
  ('PyQt5/Qt/translations/qtbase_en.qm',
   '/home/sozin/bin/GitMaster/venv/lib/python3.8/site-packages/PyQt5/Qt/translations/qtbase_en.qm',
   'DATA'),
  ('PyQt5/Qt/translations/qtbase_es.qm',
   '/home/sozin/bin/GitMaster/venv/lib/python3.8/site-packages/PyQt5/Qt/translations/qtbase_es.qm',
   'DATA'),
  ('PyQt5/uic/widget-plugins/__pycache__/qaxcontainer.cpython-38.pyc',
   '/home/sozin/bin/GitMaster/venv/lib/python3.8/site-packages/PyQt5/uic/widget-plugins/__pycache__/qaxcontainer.cpython-38.pyc',
   'DATA'),
  ('PyQt5/Qt/translations/qtbase_gd.qm',
   '/home/sozin/bin/GitMaster/venv/lib/python3.8/site-packages/PyQt5/Qt/translations/qtbase_gd.qm',
   'DATA'),
  ('PyQt5/Qt/translations/qtbase_ca.qm',
   '/home/sozin/bin/GitMaster/venv/lib/python3.8/site-packages/PyQt5/Qt/translations/qtbase_ca.qm',
   'DATA'),
  ('lib2to3/Grammar.txt', '/usr/lib/python3.8/lib2to3/Grammar.txt', 'DATA'),
  ('PyQt5/Qt/translations/qtbase_it.qm',
   '/home/sozin/bin/GitMaster/venv/lib/python3.8/site-packages/PyQt5/Qt/translations/qtbase_it.qm',
   'DATA'),
  ('PyQt5/Qt/translations/qtbase_tr.qm',
   '/home/sozin/bin/GitMaster/venv/lib/python3.8/site-packages/PyQt5/Qt/translations/qtbase_tr.qm',
   'DATA'),
  ('PyQt5/Qt/translations/qtbase_bg.qm',
   '/home/sozin/bin/GitMaster/venv/lib/python3.8/site-packages/PyQt5/Qt/translations/qtbase_bg.qm',
   'DATA'),
  ('PyQt5/uic/widget-plugins/__pycache__/qscintilla.cpython-38.pyc',
   '/home/sozin/bin/GitMaster/venv/lib/python3.8/site-packages/PyQt5/uic/widget-plugins/__pycache__/qscintilla.cpython-38.pyc',
   'DATA'),
  ('lib/python3.8/config-3.8-x86_64-linux-gnu/Makefile',
   '/usr/lib/python3.8/config-3.8-x86_64-linux-gnu/Makefile',
   'DATA'),
  ('PyQt5/uic/widget-plugins/qtcharts.py',
   '/home/sozin/bin/GitMaster/venv/lib/python3.8/site-packages/PyQt5/uic/widget-plugins/qtcharts.py',
   'DATA'),
  ('include/python3.8/pyconfig.h',
   '/usr/include/python3.8/pyconfig.h',
   'DATA')],
 [])
